1,admin,8c6976e5b5410415bde908bd4dee15dfb167a9c873fc4bb8a81f6f2ab448a918,Елизавета,Белозерова,@gmail.com,3
2,teacher,1057a9604e04b274da5a4de0c8f4b4868d9b230989f8c8c6a28221143cc5a755,Василий,Шишкин,@gmail.com,2
3,teacher2,1c8e87b3ef6a6cc33b5444feba8e25fa90ab8c7b09c3a7aef8e968d842b9add7,Иван,Петров,@mail.ru,2
4,student,264c8c381bf16c982a4e59b0dd4c6f7808c51a05f64c35db42cc78a2a72875bb,Мария,Исмагилова,@yandex.ru,1
5,student2,eb4b3111401df980f14f28ad6804ae096df1e1c6963c51eab4140be226f8c94c,Сергей,Мазунин,@bk.ru,1
6,student3,373b29d2837e83b9ca5cec712a5985843df271cc7c06e64629472f4d03c6f83c,Никита,Харалашко,@gmail.com,1
7,123,a665a45920422f9d417e4867efdc4fb8a04a1f3fff1fa07e998e86f7f7a27ae3,123Name,345Sur,test@gmail.com,1
8,345,da70dfa4d9f95ac979f921e8e623358236313f334afcd06cddf8a5621cf6a1e9,345Name,345Sur,345@gmail.com,2
9,345,da70dfa4d9f95ac979f921e8e623358236313f334afcd06cddf8a5621cf6a1e9,123Name,345Sur,test@gmail.com,2
